[
  {
    "type": "tab",
    "id": "41ba1cd.a4187e4",
    "label": "Flow 1"
  },
  {
    "id": "8cbe4174.e6a79",
    "type": "function",
    "z": "41ba1cd.a4187e4",
    "name": "",
    "func": "context.global.dps = context.global.dps || \"foo\";\nmsg.payload = context.global.dps;\nreturn msg;",
    "outputs": 1,
    "noerr": 0,
    "x": 365,
    "y": 123,
    "wires": [
      [
        "38527325.86d3ec"
      ]
    ]
  },
  {
    "id": "7d11b376.c5310c",
    "type": "inject",
    "z": "41ba1cd.a4187e4",
    "name": "",
    "topic": "",
    "payload": "",
    "payloadType": "date",
    "repeat": "",
    "crontab": "",
    "once": false,
    "x": 188,
    "y": 124,
    "wires": [
      [
        "8cbe4174.e6a79"
      ]
    ]
  },
  {
    "id": "38527325.86d3ec",
    "type": "debug",
    "z": "41ba1cd.a4187e4",
    "name": "",
    "active": true,
    "console": "false",
    "complete": "payload",
    "x": 545,
    "y": 122,
    "wires": []
  }
]